Análise dos dados do experimento de eficiência de inseticidas no controle de lagartas da traça-do-tomateiro – Eficiência de inseticidas no controle da traça do tomateiro
…
Carregamento dos dados: como o dataframe contendo os dados de eficiência dos inseticidas estava localizado em uma planilha Excel no desktop, para o carregamento dos dados, foi necessário utilizar a função read_excel do pacote readxl. O dataframe foi atribuído ao objeto denominado dados.

dados <- read_excel("teste_lagarta_traça.xlsx")

dados

# A tibble: 96 × 6
   tratamento repetição tempo vivos mortos total
   <chr>          <dbl> <dbl> <dbl>  <dbl> <dbl>
 1 abamex             1    48     0     10    10
 2 abamex             2    48     0     10    10
 3 abamex             3    48     0     10    10
 4 abamex             4    48     0     10    10
 5 abamex             5    48     0     10    10
 6 abamex             6    48     0     10    10
 7 actara             1    48     6      4    10
 8 actara             2    48     4      6    10
 9 actara             3    48     6      4    10
10 actara             4    48     5      5    10
# ℹ 86 more rows
…
Assim, observamos que os dados não atendem as pressuposições da ANOVA. Assim, se torna necessária a transformação dos dados ou a utilização de outros testes e modelos para a análise de dados. Com isso, apresentamos as duas formas de análise dos dados.

Transformação dos dados

Os dados foram transformados pela função anscombe = asin(sqrt(x)) (transformação angular (ou de Anscombe)). É uma transformação usada para dados de proporção

dados <- dados %>%
  mutate(
    anscombe = asin(sqrt((mortos + 3/8) / (total + 3/4)))
  )

print(dados)

# A tibble: 96 × 8
   tratamento repetição tempo vivos mortos total mortalidade anscombe
   <chr>          <dbl> <dbl> <dbl>  <dbl> <dbl>       <dbl>    <dbl>
 1 abamex             1    48     0     10    10         1      1.38 
 2 abamex             2    48     0     10    10         1      1.38 
 3 abamex             3    48     0     10    10         1      1.38 
 4 abamex             4    48     0     10    10         1      1.38 
 5 abamex             5    48     0     10    10         1      1.38 
 6 abamex             6    48     0     10    10         1      1.38 
 7 actara             1    48     6      4    10         0.4    0.692
 8 actara             2    48     4      6    10         0.6    0.879
 9 actara             3    48     6      4    10         0.4    0.692
10 actara             4    48     5      5    10         0.5    0.785
# ℹ 86 more rows
…
